Urutan,Kota,Provinsi,Sensus 2010BPS[2],Data 2015Kemendagri[3]
1,Kota Administrasi Jakarta Timur,Daerah Khusus Ibukota Jakarta,2.693.896,2.852.887
2,Kota Surabaya,Jawa Timur,2.765.487,2.805.906
5,Kota Bandung,Jawa Barat,2.394.873,2.575.478
4,Kota Bekasi,Jawa Barat,2.334.871,2.381.053
3,Kota Medan,Sumatra Utara,2.097.610,2.465.469
6,Kota Administrasi Jakarta Barat,Daerah Khusus Ibukota Jakarta,2.281.945,2.234.397
7,Kota Administrasi Jakarta Selatan,Daerah Khusus Ibukota Jakarta,2.062.232,2.113.411
8,Kota Makassar,Sulawesi Selatan,1.338.663,1.651.146
9,Kota Administrasi Jakarta Utara,Daerah Khusus Ibukota Jakarta,1.645.659,1.647.853
10,Kota Depok,Jawa Barat,1.738.570,1.631.951
11,Kota Semarang,Jawa Tengah,1.555.984,1.621.384
12,Kota Tangerang,Banten,1.798.601,1.566.190
13,Kota Palembang,Sumatra Selatan,1.455.284,1.548.064
14,Kota Tangerang Selatan,Banten,1.290.322,1.219.245
15,Kota Bandar Lampung,Lampung,881.801,1.166.761
16,Kota Administrasi Jakarta Pusat,Daerah Khusus Ibukota Jakarta,902.973,1.114.581
17,Kota Batam,Kepulauan Riau,944.285,1.029.808
18,Kota Bogor,Jawa Barat,950.334,982.469
19,Kota Padang,Sumatra Barat,833.562,872.271
20,Kota Pekanbaru,Riau,897.767,855.221
21,Kota Malang,Jawa Timur,820.243,808.945
22,Kota Samarinda,Kalimantan Timur,727.500,752.845
23,Kota Tasikmalaya,Jawa Barat,635.464,678.027
24,Kota Pontianak,Kalimantan Barat,554.764,651.139
25,Kota Banjarmasin,Kalimantan Selatan,625.481,635.688
26,Kota Denpasar,Bali,788.589,632.016
27,Kota Serang,Banten,577.785,613.356
28,Kota Jambi,Jambi,531.857,602.187
29,Kota Balikpapan,Kalimantan Timur,557.579,597.625
30,Kota Surakarta,Jawa Tengah,499.337,552.118
31,Kota Cimahi,Jawa Barat,541.177,513.176
32,Kota Manado,Sulawesi Utara,394.683,461.636
33,Kota Kupang,Nusa Tenggara Timur,336.239,433.970
34,Kota Jayapura,Papua,233.859,413.283
35,Kota Mataram,Nusa Tenggara Barat,402.843,408.900
36,Kota Yogyakarta,Daerah Istimewa Yogyakarta,388.627,407.617
37,Kota Cilegon,Banten,374.559,387.543
38,Kota Ambon,Maluku,305.984,372.249
39,Kota Bengkulu,Bengkulu,308.544,360.495
40,Kota Palu,Sulawesi Tengah,310.168,359.350
41,Kota Kendari,Sulawesi Tenggara,289.966,331.013
42,Kota Sukabumi,Jawa Barat,298.681,320.970
43,Kota Cirebon,Jawa Barat,296.389,316.126
44,Kota Pekalongan,Jawa Tengah,281.434,298.386
45,Kota Kediri,Jawa Timur,268.507,280.780
46,Kota Pematangsiantar,Sumatra Utara,62.916,278.055
47,Kota Tegal,Jawa Tengah,239.599,275.789
48,Kota Sorong,Papua Barat,118.017,272.349
49,Kota Binjai,Sumatra Utara,246.154,269.053
50,Kota Dumai,Riau,253.803,264.084
51,Kota Palangka Raya,Kalimantan Tengah,220.962,249.429
52,Kota Banda Aceh,Aceh,223.446,235.305
53,Kota Singkawang,Kalimantan Barat,186.462,230.216
54,Kota Probolinggo,Jawa Timur,217.062,225.655
55,Kota Padang Sidempuan,Sumatra Utara,191.531,225.544
56,Kota Bitung,Sulawesi Utara,155.385,218.520
57,Kota Banjarbaru,Kalimantan Selatan,199.627,216.600
58,Kota Ternate,Maluku Utara,158.418,213.274
59,Kota Lubuklinggau,Sumatra Selatan,201.308,208.225
60,Kota Pasuruan,Jawa Timur,186.262,204.275
61,Kota Tanjungpinang,Kepulauan Riau,187.359,203.008
62,Kota Pangkalpinang,Bangka Belitung,174.758,202.959
63,Kota Madiun,Jawa Timur,170.964,201.906
64,Kota Tarakan,Kalimantan Utara,193.370,198.133
65,Kota Batu,Jawa Timur,190.184,196.456
66,Kota Gorontalo,Gorontalo,173.951,191.897
67,Kota Banjar,Jawa Barat,175.157,188.486
68,Kota Lhokseumawe,Aceh,171.163,188.221
69,Kota Prabumulih,Sumatra Selatan,161.984,188.082
70,Kota Palopo,Sulawesi Selatan,116.152,180.130
71,Kota Langsa,Aceh,148.945,178.334
72,Kota Salatiga,Jawa Tengah,170.332,175.288
73,Kota Parepare,Sulawesi Selatan,125.207,175.040
74,Kota Tebing Tinggi,Sumatra Utara,145.248,169.786
75,Kota Tanjungbalai,Sumatra Utara,154.445,165.763
76,Kota Metro,Lampung,145.471,161.799
77,Kota Bontang,Kalimantan Timur,143.683,161.356
78,Kota Baubau,Sulawesi Tenggara,106.638,152.143
79,Kota Blitar,Jawa Timur,131.968,144.659
80,Kota Gunungsitoli,Sumatra Utara,126.202,137.104
81,Kota Bima,Nusa Tenggara Barat,142.579,136.492
82,Kota Pagar Alam,Sumatra Selatan,126.181,136.244
83,Kota Mojokerto,Jawa Timur,120.196,133.274
84,Kota Payakumbuh,Sumatra Barat,116.825,125.608
85,Kota Magelang,Jawa Tengah,118.227,124.912
86,Kota Kotamobagu,Sulawesi Utara,107.459,120.597
87,Kota Bukittinggi,Sumatra Barat,111.312,113.326
88,Kota Tidore Kepulauan,Maluku Utara,90.055,103.171
89,Kota Sungaipenuh,Jambi,82.293,101.325
90,Kota Tomohon,Sulawesi Utara,91.553,96.411
91,Kota Sibolga,Sumatra Utara,84.481,94.971
92,Kota Pariaman,Sumatra Barat,79.043,85.485
93,Kota Tual,Maluku,58.082,82.955
94,Kota Subulussalam,Aceh,67.446,78.801
95,Kota Solok,Sumatra Barat,59.396,63.672
96,Kota Sawahlunto,Sumatra Barat,56.866,61.427
97,Kota Padang Panjang,Sumatra Barat,47.008,50.317
98,Kota Sabang,Aceh,30.653,38.077
